<?xml version="1.0" encoding="UTF-8"?>
<svg width="104px" height="26px" viewBox="0 0 104 26" version="1.1" xmlns="http://www.w3.org/2000/svg" xmlns:xlink="http://www.w3.org/1999/xlink">
    <!-- Generator: Sketch 60.1 (88133) - https://sketch.com -->
    <title>miz-khabar-logo</title>
    <desc>Created with Sketch.</desc>
    <g id="pages" stroke="none" stroke-width="1" fill="none" fill-rule="evenodd">
        <g id="mizkhabar_category_light" transform="translate(-1125.000000, -72.000000)" fill-rule="nonzero">
            <g id="navBar">
                <g id="middle-nav" transform="translate(1.000000, 39.000000)">
                    <g id="miz-khabar-logo" transform="translate(1124.000000, 33.000000)">
                        <g transform="translate(67.000000, 0.000000)" id="Path">
                            <path d="M6.04486337,10.6966019 C6.84627696,9.7184466 7.92510295,9.18203883 9.12722333,8.99271845 C10.0827549,8.86650485 11.0382865,8.77184466 12.0246417,8.77184466 C16.7098288,8.77184466 18.929128,8.83495146 23.6143152,8.83495146 C25.3712603,8.83495146 27.0357347,8.51941748 28.5152675,7.44660194 C30.5188015,5.99514563 30.6420959,3.12378641 28.7310327,1.5461165 C27.6213831,0.631067961 26.3576155,0.220873786 25.0013771,0.189320388 C21.8265464,0.0631067961 21.08678,1.42108547e-14 17.9119492,1.42108547e-14 C16.2166513,1.42108547e-14 14.4905297,0.0315533981 12.8260553,0.315533981 C9.49710653,0.883495146 7.12368936,2.77669903 5.92156897,6.08980583 C5.33592058,7.66747573 5.24344978,9.30825243 5.55168578,11.1067961 C5.76745097,10.8859223 5.92156897,10.8228155 6.04486337,10.6966019 Z" fill="#15244A"></path>
                            <path d="M35.8204606,7.38349515 C35.3889302,6.34223301 34.7724582,5.39563107 33.786103,4.54368932 C33.7244558,4.9223301 33.6936322,5.20631068 33.6011614,5.45873786 C33.2004547,6.59466019 32.9230423,7.85679612 32.3065703,8.83495146 C30.4879779,11.6747573 27.6830303,12.842233 24.477376,12.8737864 C17.850302,12.9053398 22.8437252,12.8106796 16.1858277,12.8106796 C13.4733509,12.8106796 10.7300505,12.7475728 8.04839735,13.1262136 C3.3323866,13.8203883 0.12673224,17.7961165 0.00343784121,22.6868932 C-0.0273857584,23.7912621 0.157555839,24.8640777 0.219203039,26 C0.527439035,25.9368932 0.558262635,25.9368932 0.558262635,25.9368932 C0.650733434,25.8106796 0.743204233,25.7160194 0.835675031,25.5898058 C2.62344381,23.0970874 4.99686098,21.7402913 8.01757375,21.6456311 C10.2676965,21.5509709 12.5178193,21.5825243 14.7371185,21.5825243 C21.4566632,21.6140777 16.5248872,21.7087379 23.244432,21.6456311 C27.4672651,21.6140777 31.3510387,20.5097087 34.1868098,16.9757282 C36.5294034,14.1043689 37.2691698,10.9174757 35.8204606,7.38349515 Z" fill="#374E88"></path>
                        </g>
                        <path d="M58.9006532,14.6923077 C58.7492285,15.4423077 58.4274509,16.0576923 57.9731767,16.5192308 C57.4999744,16.9807692 56.9699878,17.2115385 56.3453608,17.2115385 C55.3232438,17.2115385 54.2254144,16.8653846 53.0329446,16.1730769 C52.502958,15.8653846 52.0108276,15.5192308 51.5565534,15.1346154 C51.4051287,15.5384615 51.2158477,15.8653846 50.9887106,16.1346154 C50.7615735,16.4038462 50.5722926,16.6153846 50.3830117,16.75 C50.1937308,16.8846154 49.9665937,16.9807692 49.7205285,17.0576923 C49.4555352,17.1346154 49.2662542,17.1730769 49.1148295,17.1923077 C49.0012609,17.1923077 48.8498362,17.2115385 48.6984115,17.2115385 L48.6984115,17.2115385 L48.5659148,17.2115385 L48.4902025,17.2115385 L48.4334182,17.2115385 L48.4144901,17.2115385 C48.395562,17.2115385 48.3766339,17.2115385 48.3577058,17.2115385 C47.4870136,17.1923077 46.7298899,17.0192308 46.0674066,16.6923077 C45.3670672,16.3461538 44.8938649,15.8846154 44.6099435,15.3269231 C43.8528198,16.5769231 42.6224938,17.2115385 40.9000374,17.2115385 L40.4457632,17.2115385 L40.2943385,17.2115385 L40.2754104,17.2115385 L40.2564823,17.2115385 C39.4993586,17.2115385 38.8747316,17.0192308 38.3636731,16.6346154 C38.3258169,17.4230769 38.1554641,18.1923077 37.8715427,18.9615385 C37.5876213,19.7307692 37.2279875,20.4038462 36.7926414,21 C36.3572953,21.5961538 35.884093,22.1153846 35.3541064,22.5769231 C34.8430479,23.0384615 34.3130613,23.3846154 33.8020028,23.6346154 C33.2909443,23.8846154 32.817742,24 32.401324,24 C32.0606183,23.9807692 31.5117036,23.7115385 30.7924361,23.1538462 C30.0731686,22.6153846 29.5999663,22.1538462 29.3728292,21.7692308 C29.3160449,21.6346154 29.2971168,21.5384615 29.3539011,21.4615385 C29.3917573,21.3846154 29.4863978,21.3653846 29.5999663,21.3653846 C30.4328024,21.3653846 31.2467104,21.2307692 32.0227621,20.9807692 C32.7988139,20.7307692 33.4802252,20.4038462 34.0291399,20 C34.5780546,19.6153846 35.070185,19.1923077 35.486603,18.75 C35.9030211,18.3076923 36.2058705,17.8846154 36.3951515,17.5 C36.5844324,17.0961538 36.6601448,16.7884615 36.6222886,16.5384615 C36.5844324,16.2884615 36.3762234,15.7692308 35.9787334,15 C35.6001716,14.2307692 35.2405378,13.5961538 34.9376884,13.0769231 C35.2405378,12.5 35.6190997,11.8846154 36.0544458,11.2307692 C36.4897919,10.5961538 36.7737133,10.2692308 36.90621,10.2692308 C36.9440661,10.2692308 37.0576347,10.4423077 37.2658437,10.8076923 C37.4740527,11.1730769 37.7201179,11.5576923 37.9851112,12 C38.2501045,12.4230769 38.5908102,12.8269231 39.0072282,13.1923077 C39.4047181,13.5576923 39.8022081,13.7307692 40.1807699,13.7307692 L40.2564823,13.7307692 L40.2754104,13.7307692 L40.4457632,13.7307692 L40.5404037,13.7307692 C40.9568217,13.7307692 41.3543117,13.6730769 41.7328735,13.5576923 C42.1114353,13.4423077 42.452141,13.2692308 42.7739186,13.0192308 C43.0956961,12.7884615 43.3417613,12.4615385 43.5310423,12.0384615 C43.7203232,11.6346154 43.8149637,11.1538462 43.8149637,10.5961538 C43.8149637,10.3269231 43.8717479,10.0576923 43.9853165,9.80769231 C44.098885,9.55769231 44.3070941,9.42307692 44.5910154,9.42307692 C44.7992245,9.42307692 44.9506492,9.5 45.0831458,9.65384615 C45.1967144,9.80769231 45.2913549,9.96153846 45.3102829,10.1346154 C45.3481391,10.2884615 45.3481391,10.4423077 45.3481391,10.5961538 C45.3481391,11.6923077 45.6131324,12.4807692 46.1241909,12.9807692 C46.6352494,13.4807692 47.4302293,13.7307692 48.4712744,13.7307692 L48.6416272,13.7307692 L48.9255486,13.7307692 C49.3041104,13.7307692 49.6448161,13.6153846 49.9665937,13.4038462 C50.2883712,13.1923077 50.5533645,12.9038462 50.7805016,12.5576923 C51.0076387,12.2115385 51.2347758,11.8269231 51.4429849,11.4230769 C51.6511939,11 51.878331,10.5961538 52.1243962,10.1730769 C52.3515333,9.75 52.6165266,9.36538462 52.8815199,9.03846154 C53.1465132,8.69230769 53.4872188,8.40384615 53.8847088,8.19230769 C54.2821987,7.98076923 54.7175448,7.86538462 55.2096752,7.86538462 C56.0992956,7.86538462 56.8374912,8.25 57.4431901,9.01923077 C58.0488891,9.78846154 58.5031633,10.8269231 58.8249409,12.1538462 C59.0331499,13.0961538 59.052078,13.9423077 58.9006532,14.6923077 Z M57.5189025,13 C57.4810463,12.8076923 57.424262,12.5961538 57.3485497,12.4038462 C57.1403406,11.9038462 56.8374912,11.4230769 56.4589293,11.0192308 C56.0803675,10.5961538 55.6828775,10.3846154 55.2853876,10.3846154 C55.0771786,10.3846154 54.8878977,10.4230769 54.6986167,10.5192308 C54.5093358,10.6153846 54.3200549,10.75 54.1497021,10.9423077 C53.9604211,11.1346154 53.8279245,11.3076923 53.7143559,11.4423077 C53.6007874,11.5769231 53.4682907,11.7884615 53.2600817,12.0961538 C53.0708008,12.4038462 52.9383041,12.5961538 52.8815199,12.6730769 C53.4115065,12.9615385 53.9225649,13.2307692 54.3768392,13.4423077 C55.4557404,13.9423077 56.2885765,14.2115385 56.8753474,14.2115385 C57.0835564,14.2115385 57.2539092,14.1538462 57.3674778,14.0384615 C57.4810463,13.9230769 57.5567587,13.7692308 57.5567587,13.5961538 C57.5567587,13.3846154 57.5567587,13.1923077 57.5189025,13 Z M35.0134007,6.11538462 L36.8683538,4.21153846 L38.7233068,6.11538462 L36.8683538,8 L35.0134007,6.11538462 Z M31.795625,12.6538462 C31.4549194,12.6923077 31.0385013,12.8269231 30.5274428,13.0576923 C30.0163844,13.2884615 29.5053259,13.5769231 28.9753393,13.9230769 C28.4453527,14.25 27.8207256,14.6153846 27.1014581,15 C26.3821906,15.3846154 25.643995,15.75 24.9247275,16.0769231 C24.1865319,16.4038462 23.3536959,16.6730769 22.4072912,16.8846154 C21.4608866,17.0961538 20.4955539,17.2115385 19.5491493,17.2115385 L19.0380908,17.2115385 L18.8488099,17.2115385 L18.8298818,17.2115385 L18.7541694,17.2115385 C18.7352413,17.2115385 18.6973851,17.2115385 18.6784571,17.2115385 C17.845621,17.1923077 17.1263535,17.0192308 16.5395826,16.6923077 C15.9149556,16.3461538 15.4606814,15.8846154 15.17676,15.3269231 C14.9306948,15.7307692 14.6467734,16.0769231 14.3439239,16.3461538 C14.0410744,16.6153846 13.7192969,16.8076923 13.3975193,16.9230769 C13.0757417,17.0384615 12.7728923,17.1153846 12.5268271,17.1538462 C12.2807619,17.1923077 11.9968405,17.2115385 11.6750629,17.2115385 L11.1072201,17.2115385 L11.0693639,17.2115385 L11.0504359,17.2115385 L10.9368673,17.2115385 C10.1797436,17.2115385 9.55511656,17.0192308 9.04405807,16.6346154 C9.00620188,17.4230769 8.83584905,18.1923077 8.55192767,18.9615385 C8.26800628,19.7307692 7.90837253,20.4038462 7.47302641,21 C7.03768028,21.5961538 6.56447797,22.1153846 6.03449139,22.5769231 C5.5234329,23.0384615 4.99344631,23.3846154 4.48238782,23.6346154 C3.97132933,23.8846154 3.49812702,24 3.08170899,24 C2.74100333,23.9807692 2.19208865,23.7115385 1.47282114,23.1538462 C0.753553633,22.6153846 0.280351325,22.1538462 0.0532142173,21.7692308 C-0.00357005965,21.6346154 -0.022498152,21.5384615 0.034286125,21.4615385 C0.0721423096,21.3846154 0.166782771,21.3653846 0.280351325,21.3653846 C1.11318739,21.3653846 1.92709536,21.2307692 2.70314714,20.9807692 C3.47919893,20.7307692 4.16061025,20.4038462 4.70952493,20 C5.2584396,19.6153846 5.75057,19.1923077 6.16698804,18.75 C6.58340607,18.3076923 6.88625554,17.8846154 7.07553647,17.5 C7.26481739,17.0961538 7.34052976,16.7884615 7.30267357,16.5384615 C7.26481739,16.2884615 7.05660837,15.7692308 6.65911844,15 C6.28055659,14.2307692 5.92092284,13.5961538 5.61807336,13.0769231 C5.92092284,12.5 6.29948468,11.8846154 6.7348308,11.2307692 C7.17017693,10.5961538 7.45409831,10.2692308 7.58659496,10.2692308 C7.62445114,10.2692308 7.7380197,10.4423077 7.94622871,10.8076923 C8.15443773,11.1730769 8.40050293,11.5576923 8.66549622,12 C8.93048951,12.4230769 9.27119518,12.8269231 9.68761321,13.1923077 C10.0851031,13.5576923 10.4825931,13.7307692 10.8611549,13.7307692 L11.0315078,13.7307692 L11.0504359,13.7307692 L11.088292,13.7307692 L11.3343572,13.7307692 C11.7507753,13.7307692 12.1293371,13.6730769 12.4889709,13.5576923 C12.8486046,13.4423077 13.1703822,13.2692308 13.4543036,13.0192308 C13.738225,12.7884615 13.9653621,12.4615385 14.1357149,12.0384615 C14.3060677,11.6346154 14.3817801,11.1538462 14.3817801,10.5961538 C14.3817801,10.3269231 14.4385644,10.0576923 14.5521329,9.80769231 C14.6657015,9.55769231 14.8739105,9.42307692 15.1578319,9.42307692 C15.3660409,9.42307692 15.5174656,9.5 15.6499623,9.65384615 C15.7635308,9.80769231 15.8581713,9.96153846 15.8770994,10.1346154 C15.9149556,10.2884615 15.9149556,10.4423077 15.9149556,10.5961538 C15.9149556,11.7115385 16.1420927,12.5192308 16.615295,13 C17.0695692,13.4807692 17.8077648,13.7307692 18.8298818,13.7307692 L19.0002346,13.7307692 L19.7952145,13.7307692 C21.1012529,13.7692308 22.5019317,13.6153846 23.997251,13.2307692 C25.5114984,12.8461538 26.8175368,12.2884615 27.9532223,11.5384615 C27.3475233,11.3269231 26.666112,11.0576923 25.8900602,10.75 C25.1140084,10.4230769 24.5272376,10.2115385 24.0918915,10.0769231 C23.6565453,9.94230769 23.2590554,9.86538462 22.8615655,9.86538462 L22.8047812,9.86538462 C22.0665856,9.86538462 21.3473181,10.2307692 20.6469787,10.9423077 C20.4009135,11.2307692 20.1737763,11.3653846 19.9655673,11.3653846 C19.6816459,11.3653846 19.5870055,11.1153846 19.6627179,10.6153846 C19.7384302,10.1923077 19.8709269,9.76923077 20.0602078,9.34615385 C20.2305606,8.94230769 20.4766258,8.53846154 20.7605472,8.19230769 C21.0444686,7.82692308 21.4041024,7.53846154 21.8205204,7.32692308 C22.2369384,7.11538462 22.7101407,7 23.2022711,7 C23.6186892,7 24.1108196,7.09615385 24.6786623,7.30769231 C25.2465051,7.5 25.852204,7.75 26.457903,8.03846154 C27.063602,8.32692308 27.688229,8.61538462 28.3507122,8.90384615 C28.9942674,9.19230769 29.6946068,9.42307692 30.4517305,9.63461538 C31.2088542,9.82692308 31.9091936,9.94230769 32.5716768,9.94230769 L32.5906049,9.94230769 C32.7231016,9.94230769 32.817742,9.98076923 32.8555982,10.0769231 C32.8934544,10.1730769 32.8745263,10.25 32.8366701,10.3076923 L31.795625,12.6538462 Z M20.9498281,2.90384615 L22.8047812,1 L24.6597342,2.90384615 L22.8047812,4.78846154 L20.9498281,2.90384615 Z M17.3345625,20.6923077 L15.4796095,22.5769231 L13.6246564,20.6923077 L15.4796095,18.7884615 L17.3345625,20.6923077 Z M46.2377595,20.1538462 L45.7834853,22.2884615 C45.7834853,22.2884615 41.1461026,20.8846154 39.8400643,22.1153846 C38.5150978,23.3653846 41.0325341,17.5192308 46.2377595,20.1538462 Z" id="Shape" fill="#313131"></path>
                    </g>
                </g>
            </g>
        </g>
    </g>
</svg>